398377 425767
477098 801386
732609 536160
36045 55618
824089 230808
966984 923951
818161 841092
861256 212026
187629 829102
410337 545093
713054 550492
348531 542435
950798 640702
688716 893986
272366 890571
922628 367257
854326 285793
538020 219727
563256 268625
467813 68989
647829 553309
636424 280604
532275 814115
136404 414119
393247 140411
358670 921242
397160 6599
928275 810776
242308 747555
216844 797631
683185 122995
24479 181521
958790 486012
352511 179475
775470 538726
232747 613692
5693 208235
500925 11719
360941 351919
685126 252308
910720 611859
552534 966320
611507 690999
146554 697401
772777 331855
867047 966856
853886 646805
112972 461226
214220 43825
134701 671776
753422 504433
976616 276877
697741 93125
784698 719300
557993 558420
268271 762915
773930 833754
258663 112117
763653 490728
97053 630498
321036 60467
584043 466462
865642 547369
392158 965058
122077 162706
353114 473859
467506 900631
805207 187092
641467 625829
875515 66452
349770 722188
159855 7980
62242 962244
154312 342248
223222 116055
45203 955202
811512 703565
303630 438321
58310 829181
682884 37735
684099 495516
445550 85294
640703 539099
312693 711810
197329 337614
409273 66262
665556 232506
246184 998967
195340 53732
159800 699617
158452 391501
915581 429136
783827 397921
180229 244075
379348 276457
285902 699579
191248 798024
627746 449073
192727 362802
453200 588043
626191 35896
476623 789331
821923 833527
804403 48295
312619 215780
774819 608328
532199 359396
468501 706469
323895 861330
211127 156066
822143 256613
479077 431518
484365 792486
158169 501682
167923 234531
153843 639335
51073 127056
699751 505417
259862 192516
572538 595098
709798 268278
615285 767533
572303 832745
695028 871291
729949 613265
350290 978319
853962 796287
772109 928955
232584 683566
112083 11342
559779 146739
909984 358323
518355 303176
510900 737147
915729 611928
101606 128005
807535 138987
762701 474584
243879 584156
755979 418765
946266 137109
565284 6688
381963 755905
964510 896806
983383 494367
117872 868302
466415 924145
307701 31589
527323 989958
373688 331359
554523 479718
358079 796044
861375 827313
389533 929797
83516 285225
602004 689614
656869 716631
945758 794591
994891 794176
144715 823245
334364 308180
860705 666161
46832 706202
666212 860090
26279 941664
607739 174076
180945 196097
990710 480877
150077 625020
887702 415199
113771 609828
434687 543546
163000 8095
639273 546300
682225 881116
667375 519473
554486 39630
569550 393336
636413 712121
285273 803075
869379 594264
402267 743555
256851 170033
449027 395273
760457 987752
440304 137584
697103 595403
424809 503948
541331 521489
897423 937469
631809 689075
452610 784929
568293 89763
471908 1714
357392 781966
510517 271140
293056 846823
772913 577298
809779 36063
236895 469539
87537 200574
885443 671734
868719 599047
947962 142599
312937 398358
574541 242330
265013 836745
363902 228165
282573 398696
675253 911124
678482 956795
405338 664416
901637 241352
783500 268145
775568 332843
292168 726445
802621 339942
72152 792682
62826 672773
533480 37771
236300 530801
557044 376617
706682 390343
269946 238393
568436 470048
597361 333619
242321 271382
712733 825231
412107 761259
295597 876289
848599 466769
344363 260187
418008 343690
59084 216099
405147 889358
684729 107635
935936 957099
824274 846478
233750 544744
632372 983939
483202 944174
60207 102643
148449 317632
961971 659829
582219 434924
691297 747013
185268 480579
597172 216464
927735 8402
776343 111336
230405 590060
313701 833952
423621 688479
804919 669331
876650 581424
403734 489186
910078 523428
714716 302494
105548 562026
596162 587810
471989 239743
138659 622727
