278741 351577 441
597087 354805 470
136341 659105 509
813203 854021 525
275995 533668 470
666620 266229 509
143077 669898 509
456257 698006 509
914968 170513 525
155577 998986 525
318225 87864 443
561538 358925 470
744447 370986 509
498142 666458 509
621994 186852 470
332378 484098 449
677264 853600 525
503666 143238 449
984406 80323 525
367821 610941 470
926671 186176 525
23769 466891 449
125655 228097 386
327672 145890 443
23730 934388 525
842745 915709 476
248122 745216 509
877773 711551 525
411129 679486 509
903180 583116 525
220944 631103 509
221545 996480 525
432196 997008 525
986847 678507 525
384401 826388 509
922120 618408 525
157122 155402 383
485021 767732 509
367831 133095 443
162272 570157 470
262056 349380 441
852033 756187 525
32697 917939 525
246134 768885 509
58501 973233 525
308190 242466 407
945096 427582 525
622561 825478 509
436191 139561 449
528753 561168 452
25610 640875 509
746923 688934 504
119176 844455 525
712443 49373 509
903367 576684 525
357059 448386 449
883401 177547 525
317697 623520 470
50794 819304 509
439483 46324 449
888550 996861 507
698584 685197 442
167798 909211 525
249551 554705 470
716810 104199 509
182526 732863 509
715455 422623 509
324887 550408 470
747574 508383 509
979441 958896 458
211952 4578 383
398570 458195 449
174024 868567 525
524638 667912 509
862059 242300 525
855056 196773 525
389152 95351 443
346815 707262 509
585347 397237 470
924453 556490 525
447690 828069 509
705446 61670 509
315934 170393 443
134746 148025 375
503131 718898 509
84631 715953 509
858693 759123 525
636968 980538 525
242585 778327 509
753231 139855 509
796247 795441 468
998435 477764 525
799606 836601 450
599732 68129 470
218970 43401 386
929317 24970 525
869287 345325 525
706274 657027 504
147166 579757 470
706028 990700 525
668478 76876 509
481035 357665 449
323473 220488 443
598489 622467 447
930490 60230 525
245157 799679 509
969724 626781 525
692314 769673 504
56027 89094 351
432593 462363 444
482402 581285 470
587455 605136 403
395254 819357 509
917593 756851 525
789019 972097 525
697340 983633 525
432327 526973 470
718777 981835 525
760319 425891 509
70725 618878 470
748295 982111 525
795499 116827 509
960659 355266 525
438367 977315 525
72394 306448 443
416698 70830 449
558116 701133 509
756636 159128 509
437523 572662 470
828973 711880 468
37185 985609 525
41748 666462 509
463780 542433 470
491989 26658 449
161284 688029 509
606473 79132 470
231636 593312 470
393296 897689 525
706262 808048 468
946178 809887 525
948660 909629 507
591139 848906 525
568950 235995 470
513914 144107 470
529218 489661 470
419139 592455 470
858324 18794 525
573931 147757 470
134802 798596 509
51049 146991 375
370226 367027 392
561020 142281 470
638370 42083 509
928528 719563 525
659278 678636 442
798253 956594 525
265046 184245 443
957733 208040 525
600653 167965 470
242525 706699 509
201800 379396 443
247070 852565 525
964262 904412 507
221223 911816 525
27330 266947 443
403427 831646 509
545322 863989 525
805528 185428 509
282748 537983 470
695268 370994 509
373849 757938 509
405760 387142 436
295220 872045 525
528556 916911 525
766302 786041 468
946597 529447 525
674783 714828 504
759451 617248 509
374807 470267 449
49328 738066 509
247143 640844 509
746152 166861 509
267869 799485 509
244205 291309 407
110811 918552 525
893984 346925 525
658955 792308 504
143520 280430 443
964085 843143 507
183374 814753 509
503390 381130 449
73697 42335 340
859360 150541 525
518218 47602 470
92064 933115 525
8314 166107 383
280015 529034 470
369184 595686 470
512141 887140 525
755828 999013 525
574798 40679 470
240712 861747 525
519336 451440 470
90814 135983 354
498022 519926 470
572540 483743 470
143837 275200 443
552590 136383 470
975210 544077 525
180849 124947 383
900128 708856 525
238712 558386 470
459427 154552 449
977986 944689 458
950193 671028 525
796153 659030 504
281548 532828 470
310274 768670 509
324744 156422 443
263820 970315 525
931498 748548 525
998688 270206 525
933757 479488 525
891553 358165 525
752239 567973 509
816595 732053 468
590325 579923 434
950461 870052 507
583368 146937 470
777792 49652 509
403541 32044 443
672824 775099 504
919898 75274 525
893347 950344 507
50913 457100 449
958762 165636 525
768718 492697 509
509025 182278 449
674401 907033 525
807231 151759 509
345386 344700 304
300999 611455 470
122323 576031 470
61049 551084 470
865960 860425 388
593831 136987 470
101992 839471 525
819191 267103 509
448217 561119 470
979140 181920 525
