669056 346375
212492 343272
741613 385083
77880 434532
710457 891702
334083 856934
481331 45167
910596 349476
686252 373994
915266 629328
477396 579485
565812 962159
883610 247593
454563 315726
805565 411802
977988 147795
697934 31296
708100 107931
398584 847326
483913 115343
539778 108010
148418 947216
576862 995891
372972 712508
951524 199790
246836 651731
894226 10182
663711 993964
5585 167363
537842 412773
828147 454699
913138 885629
705325 75213
126408 675458
351892 536334
773355 710641
18208 579309
74531 524326
409825 914104
419244 480650
225916 11025
836870 612941
838031 898163
820907 527502
533484 905560
754659 838392
593565 349937
675116 949231
663069 783813
62729 842855
422528 452406
714161 353372
290423 736937
895296 401217
969364 301103
437755 858710
45539 747942
4259 731968
137174 264587
97711 803586
203585 594083
289273 719105
701494 644681
223358 558233
197533 914033
693558 952172
525229 453438
405936 405757
637359 580154
999690 364079
805262 500649
429592 377345
242094 934651
739543 827261
77215 448057
163232 827428
985032 737901
493881 69066
747143 535067
310391 546742
677245 250014
659197 214973
371816 52811
825968 555283
546817 24652
814887 534304
820200 162131
980310 125516
443867 684644
857099 642039
297238 970737
429185 388916
853824 388729
406410 262704
429329 436490
252554 137944
512634 206728
825855 166796
978035 860040
780739 322797
82421 776760
391887 323743
848065 647542
541842 623371
420928 988726
854368 148595
276464 5272
360145 490324
110826 59408
425898 465115
871966 423980
898523 158867
303706 803596
916786 551168
582166 976607
828414 937743
351922 25988
250166 613259
21400 522380
389730 577377
278738 229233
30711 769298
471898 983478
942949 61172
862069 235843
290283 603239
926093 492436
136454 164365
962449 329306
90255 822618
197901 311639
331244 561899
165154 608658
684335 266770
371229 24881
76944 227716
611888 881306
224716 720482
757232 899355
123542 618543
796572 934673
943701 129363
409413 94392
537490 646649
61991 914726
93336 502430
773802 384733
898588 800133
757664 212303
910376 144725
60227 861144
896414 521121
622146 396845
145319 23482
848640 96780
287866 334437
543537 730971
825022 321904
581839 241563
444984 776272
16273 522340
286912 942451
134767 631798
959848 314118
270767 337916
496557 159019
297383 278175
765410 337964
561410 639689
395560 367030
448933 645295
376960 912074
886665 59012
574069 759682
831782 234490
270358 869333
269191 49332
595787 363158
129506 922480
878631 518660
866998 557448
822914 793062
808672 417777
29485 849137
627828 410574
689547 949984
790894 8355
748018 828031
385634 644506
371480 233546
887445 943682
966741 17717
42490 348107
906933 963766
880226 280283
761414 431519
609574 302625
586906 383045
362640 718130
964577 557466
508594 98828
982364 34428
475425 233251
845863 119604
593595 45303
383473 479809
204751 635950
588817 935705
828959 736810
500241 817838
961184 385233
487207 649963
523863 149379
739687 609729
331516 743129
385038 280997
466088 639153
262137 285755
430115 404770
670979 731082
391935 489090
471046 410194
482505 769574
296541 657708
677640 841259
857364 487060
177580 215497
406230 724850
107463 982582
926255 528060
984056 55272
139297 507236
370256 5406
888732 16258
832889 773806
589693 218884
503365 548564
429698 21908
804630 511118
975180 659334
246853 842868
222525 92420
236258 970933
212403 676644
507952 823030
112977 127559
920370 869039
824401 678974
654406 948489
889439 44901
510788 287162
62353 301516
76414 986603
737868 548774
649929 969801
110517 426042
782745 701028
781280 508678
68916 245514
