876643 456266 525
868098 362548 525
488301 714162 509
929912 165768 525
131562 138401 344
448163 701098 509
565251 280228 470
68936 177012 383
517886 824929 509
870936 130642 525
819840 947979 525
183372 108046 383
687424 670103 398
545212 497867 470
223409 260249 443
352906 109488 443
517136 106333 470
518797 716865 509
845345 610942 525
960267 644489 525
350798 262597 441
81659 220353 386
43673 269818 443
500294 838848 525
305119 193483 443
155273 891874 525
908968 323546 525
227129 150388 386
772551 768473 393
553430 163328 470
699069 758209 504
93630 906994 525
43552 236701 443
192456 732917 509
487273 349774 449
493038 250753 449
191987 743868 509
943320 555966 525
511776 136879 449
18897 606913 470
495437 850878 525
276008 943907 525
769709 257630 509
716653 228215 509
713772 563072 509
778452 851093 525
849982 316717 525
827844 795406 468
779502 101260 509
638904 699630 442
888251 207083 525
355967 371936 410
989778 356388 525
757467 267017 509
756906 663934 504
609088 722089 509
653935 512116 509
539164 909871 525
867302 840619 419
227662 963937 525
558508 868009 525
961866 872623 507
352173 261480 441
459331 591139 470
158660 859269 525
765296 715097 424
89090 519941 470
371703 989269 525
10392 184518 383
629477 957437 525
431745 539137 470
596186 611752 403
29829 402348 443
564252 483851 470
22224 644890 509
761903 955177 525
851399 596925 525
893996 70341 525
189694 942134 525
642557 620176 509
695184 24744 509
785716 827747 468
24141 682512 509
166472 732937 509
772952 751891 468
701901 428583 509
908008 932318 476
134498 691169 509
974789 226319 525
647741 650957 385
677423 426905 509
375824 715292 509
323785 287600 389
396077 437152 449
225894 359972 443
94205 922043 525
586018 990160 525
174329 536900 470
157407 950927 525
690143 77189 509
528206 256799 470
927684 836652 525
427075 468503 444
267012 354062 441
673377 152932 509
696410 623912 509
186407 72391 383
861255 649286 525
989064 130243 525
719426 501272 509
249907 700990 509
867556 798397 525
944873 558390 525
219938 209619 386
267072 617223 470
19594 579731 470
697199 950671 525
656757 344905 509
490347 447505 444
958768 74263 525
107419 558662 470
825731 346580 509
392340 110362 443
297343 338274 384
994638 905246 507
875303 569591 525
460253 536225 470
313596 501660 449
685030 725662 504
758149 878552 525
521188 216287 470
100495 488788 449
77410 202510 383
561197 660199 509
735017 939346 525
179919 666331 509
686216 552412 509
545464 610277 452
596412 295012 470
140852 653013 509
811226 525561 509
183719 851950 525
394392 793317 509
626729 955918 525
4017 607268 470
611221 837038 509
887630 804182 525
825738 427403 509
331241 883516 525
302978 207758 443
438093 839619 525
265457 710781 509
211554 955289 525
186220 581024 470
728348 145894 509
385086 128849 443
98500 501204 449
135815 735049 509
681701 305041 509
266126 310813 407
463667 717612 509
954696 345401 525
300831 337105 384
906505 940481 507
195636 70157 383
722546 252214 509
291205 113042 443
924083 558245 525
256409 422423 449
136480 188859 383
537506 259322 470
923806 792907 525
535751 387745 470
257053 634608 509
341908 8205 443
74511 792116 509
435315 93998 449
258921 634112 509
914371 911512 401
553991 390204 470
256711 41413 443
456296 237534 449
339769 230082 443
410486 344523 449
349841 304749 441
892711 165224 525
607743 389064 470
337976 525138 470
527994 856748 525
622289 406620 470
780125 797542 468
758612 644442 504
404957 997607 525
630876 183733 509
980751 464622 525
865392 230553 525
274482 474875 449
330998 916944 525
442846 88002 449
851465 947249 507
488588 39286 449
703 826260 509
341291 569091 470
10013 321473 443
559895 895079 525
697721 212031 509
379040 735697 509
389546 25790 443
223773 201266 386
467325 31387 449
538503 744874 509
365533 515144 470
947834 935566 507
224134 795748 509
184152 438965 449
61219 889263 525
